{
  "selfDescriptionCredential": {
    "@context": [
      "http://www.w3.org/ns/shacl#",
      "http://www.w3.org/2001/XMLSchema#",
      "https://registry.gaia-x.eu/api/v2206/shape/files?file=resource&type=ttl#",
      "https://registry.gaia-x.eu/api/v2206/shape/files?file=participant&type=ttl#",
      "https://registry.gaia-x.eu/api/v2206/shape/files?file=service-offering&type=ttl#"
    ],
    "id": "https://arlabdevelopments.com/.well-known/infrastructure-v2206/VpsXL.json",
    "type": [
      "VerifiableCredential",
      "ServiceOfferingExperimental",
      "VirtualResource"
    ],
    "credentialSubject": {
      "id": "https://arlabdevelopments.com/.well-known/infrastructure-v2206/VpsXL.json",
      "gx-service-offering:providedBy": "https://arlabdevelopments.com/.well-known/ArsysParticipant-v2206.json",
      "gx-service-offering:name": "VPS XL",
      "gx-service-offering:description": "Arsys Private Virtual Server - XL Model",
      "gx-service-offering:ramsize": {
        "gx-service-offering:Value": "12",
        "gx-service-offering:Unit": "GB"
      },
      "gx-service-offering:disk": {
        "gx-service-offering:Value": "200",
        "gx-service-offering:Unit": "GB",
        "gx-service-offering:description": "SSD (Solid State Drives)"
      },
      "gx-service-offering:cpu": {
        "gx-service-offering:Value": "6",
        "gx-service-offering:description": "vCPU Intel Xeon"
      },
      "gx-service-offering:bandwidth": {
        "gx-service-offering:Value": "400",
        "gx-service-offering:Unit": "Mbps"
      },
      "gx-service-offering:webAddress": "https://www.arsys.net/servers/vps",
      "gx-service-offering:hostedOn": [
        "https://arlabdevelopments.com/.well-known/datacenter-v2206/serviceDatacenterEs.json"
      ],
      "gx-service-offering:termsAndConditions": [
        {
          "gx-service-offering:url": "https://www.arsys.net/legal",
          "gx-service-offering:hash": "70cf73cbb47217865004ae15949348f65272dda4da862e54c6b83615e8256809"
        }
      ],
      "gx-service-offering:dataProtectionRegime": [
        "GDPR2016"
      ],
      "gx-service-offering:gdpr": [
        {
          "gx-service-offering:url": "https://www.arsys.net/terms/personal-data-protection",
          "gx-service-offering:hash": "1c38521fd3f205e582b129d4a642d94a73aee78aec7656127b8c71bc8d252a79"
        }
      ],
      "gx-service-offering:dataExport": [
        {
          "gx-service-offering:requestType": "emails",
          "gx-service-offering:accessType": "digital",
          "gx-service-offering:formatType": "mime/png"
        },
        {
          "gx-service-offering:requestType": "API",
          "gx-service-offering:accessType": "digital",
          "gx-service-offering:formatType": "application/json"
        },
        {
          "gx-service-offering:requestType": "webform",
          "gx-service-offering:accessType": "digital",
          "gx-service-offering:formatType": "text/html"
        }
      ]
    },
    "proof": {
      "type": "JsonWebKey2020",
      "created": "2022-08-16T12:00:10.293Z",
      "proofPurpose": "assertionMethod",
      "verificationMethod": "did:web:arlabdevelopments.com",
      "jws": "eyJhbGciOiJQUzI1NiIsImI2NCI6ZmFsc2UsImNyaXQiOlsiYjY0Il19..Dj3uJpce6AqwnrGat5GJ9CRodz53ZVEXkBUQPD1EPPurR0End2g_kprQ7gtMjxDYANA-urhCC85cI_1OzSYpZ240iGKr_YBqnbuDQ8Y7Z-dOnOT_nbeRXdsGnvrEOHpfojeQ9PhiLWCnqNAplPm2VOKVmSyR8aYOeqVd0_YW_dVvbYfZfaLxtdFWy_0QpmdVRHXFxvkyWvv_8EiOnQsZOLmbf3ziQHBp5naI6YUAZ7yACndhi09xQJx9hFqAyhFJT6eqCRWgZa_Ql5kI_LTVs3RSu_wlWw6EeeFC4zsMLRSi5SCZ9pPubrsw4aT2pTq4wkWpPrhNjIVn1Fw93GN4Eg"
    }
  },
  "complianceCredential": {
    "@context": [
      "https://www.w3.org/2018/credentials/v1"
    ],
    "type": [
      "VerifiableCredential",
      "ServiceOfferingCredentialExperimental"
    ],
    "id": "https://catalogue.gaia-x.eu/credentials/ServiceOfferingCredentialExperimental/1660651213592",
    "issuer": "did:web:compliance.lab.gaia-x.eu",
    "issuanceDate": "2022-08-16T12:00:13.592Z",
    "credentialSubject": {
      "id": "https://arlabdevelopments.com/.well-known/infrastructure-v2206/VpsXL.json",
      "hash": "42f45c446d77c43a46f8b2b09c4e2a54bf7420c9700edcb0fcffc9d7b97e9e86"
    },
    "proof": {
      "type": "JsonWebKey2020",
      "created": "2022-08-16T12:00:13.592Z",
      "proofPurpose": "assertionMethod",
      "jws": "eyJhbGciOiJQUzI1NiIsImI2NCI6ZmFsc2UsImNyaXQiOlsiYjY0Il19..LR6NfMvHqK3N6b2eVyGC8IVYKu3_0cj28HQ5IllrVZJfCxi0L_ER9Ux6yxSEUNUlXxMFbDtJo6Mv-IoEDeS8m9R70h5rorOkRj1Cb3LJX7dLVjPgxApmtL2c2RgYVZ3K31tAk-89mA_3a55lnSUyxc5jdOUyykJ1nugpHOI-FFlR4TADDO3g_ursOn4aWf_rQGzpNMiRKvG-oeSW96cXKzclt--OyRsIbU4RyOMX2pbOBalKe9wOZE0CvmLehqVKp42zCX_qPmOlD_b8OBrR5v4WoqaDgIDaCe4Tc-e3ZfIEcNa7bq0bOo-Al4gep_2NZPXWxxMUjZr8nbA3S-Pf2A",
      "verificationMethod": "did:web:compliance.lab.gaia-x.eu"
    }
  }
}