{
  "selfDescriptionCredential": {
    "@context": [
      "http://www.w3.org/ns/shacl#",
      "http://www.w3.org/2001/XMLSchema#",
      "http://w3id.org/gaia-x/participant#",
      "@nest"
    ],
    "@id": "https://arlabdevelopments.com/.well-known/ArsysParticipant-v2204.json",
    "@type": [
      "VerifiableCredential",
      "LegalPerson"
    ],
    "credentialSubject": {
      "id": "did:web:compliance.gaia-x.eu",
      "gx-participant:name": {
        "@value": "Arsys Internet",
        "@type": "xsd:string"
      },
      "gx-participant:legalName": {
        "@value": "Arsys Internet S.L.U",
        "@type": "xsd:string"
      },
      "gx-participant:registrationNumber": {
        "@value": "ES26010.000059252",
        "@type": "xsd:string"
      },
      "gx-participant:headquarterAddress": {
        "@type": "gx-participant:Address",
        "gx-participant:country": {
          "@value": "ES",
          "@type": "xsd:string"
        },
        "gx-participant:street-address": {
          "@value": "Madre de Dios 21",
          "@type": "xsd:string"
        },
        "gx-participant:postal-code": {
          "@value": "26004",
          "@type": "xsd:string"
        },
        "gx-participant:locality": {
          "@value": "Logroño",
          "@type": "xsd:string"
        }
      },
      "gx-participant:legalAddress": {
        "@type": "gx-participant:Address",
        "gx-participant:country": {
          "@value": "ES",
          "@type": "xsd:string"
        },
        "gx-participant:street-address": {
          "@value": "Madre de Dios 21",
          "@type": "xsd:string"
        },
        "gx-participant:postal-code": {
          "@value": "26004",
          "@type": "xsd:string"
        },
        "gx-participant:locality": {
          "@value": "Logroño",
          "@type": "xsd:string"
        }
      },
      "gx-service-offering:TermsAndConditions": {
        "gx-service-offering:url": {
          "@value": "https://gaia-x.gitlab.io/policy-rules-committee/trust-framework/participant/#legal-person",
          "@type": "xsd:string"
        },
        "gx-service-offering:hash": {
          "@value": "36ba819f30a3c4d4a7f16ee0a77259fc92f2e1ebf739713609f1c11eb41499e7aa2cd3a5d2011e073f9ba9c107493e3e8629cc15cd4fc07f67281d7ea9023db0",
          "@type": "xsd:string"
        }
      },
      "gx-participant:parentOrganisation": [
        {
          "@type": "gx-participant:LegalPerson",
          "gx-participant:legalName": {
            "@type": "xsd:string",
            "@value": "United Internet AG"
          },
          "gx-participant:registrationNumber": {
            "@value": "DET2214V.HRB5762",
            "@type": "xsd:string"
          },
          "gx-participant:legalAddress": {
            "@type": "gx-participant:Address",
            "gx-participant:country": {
              "@value": "DE",
              "@type": "xsd:string"
            },
            "gx-participant:street-address": {
              "@value": "Elgendorfer Str. 57",
              "@type": "xsd:string"
            },
            "gx-participant:postal-code": {
              "@value": "56410",
              "@type": "xsd:string"
            },
            "gx-participant:locality": {
              "@value": "Montabaur",
              "@type": "xsd:string"
            },
            "gx-participant:state": {
              "@value": "DE-RP",
              "@type": "xsd:string"
            }
          },
          "gx-participant:headquarterAddress": {
            "@type": "gx-participant:Address",
            "gx-participant:country": {
              "@type": "xsd:string",
              "@value": "DE"
            },
            "gx-participant:street-address": {
              "@value": "Elgendorfer Str. 57",
              "@type": "xsd:string"
            },
            "gx-participant:postal-code": {
              "@value": "56410",
              "@type": "xsd:string"
            },
            "gx-participant:locality": {
              "@value": "Montabaur",
              "@type": "xsd:string"
            },
            "gx-participant:state": {
              "@value": "DE-RP",
              "@type": "xsd:string"
            }
          }
        }
      ]
    },
    "proof": {
      "type": "JsonWebKey2020",
      "created": "2022-08-12T10:24:06.419Z",
      "proofPurpose": "assertionMethod",
      "verificationMethod": "did:web:arlabdevelopments.com",
      "jws": "eyJhbGciOiJQUzI1NiIsImI2NCI6ZmFsc2UsImNyaXQiOlsiYjY0Il19..CBJfwb_ycOiDZt_hn9s9aHKC93GxSywLUVFwNC0XZIGn5GNVMqA_EBlCyg1hyaXLNEC4RSIPIl0HU4K6r5g8UGUUfPSFjuT88aA7u6jZuAzOyabLNfWjx2313o6OtNay2T28QVZvoZuwrpLGXLcXEwvajfpnnW6MimMjnEpFqX_96o8sH2DcSn045eqOdLu-tidP2eSpRsdqZq57H1cHk7MpDDSmTxMH2iZezyB7jnPx8Z_tbwDU9Y2lSuKQxoSOrlmdTtZ2EkmV0QAk6G-a15xyxUZiUo0fti0L9eRZ5zWPtZxVb2ygVN9UOlFif1SXjfe5dvN2lF73L75Yax0H6A"
    }
  },
  "complianceCredential": {
    "@context": [
      "https://www.w3.org/2018/credentials/v1"
    ],
    "@type": [
      "VerifiableCredential",
      "ParticipantCredential"
    ],
    "id": "https://catalogue.gaia-x.eu/credentials/ParticipantCredential/1660299849502",
    "issuer": "did:web:compliance.gaia-x.eu",
    "issuanceDate": "2022-08-12T10:24:09.502Z",
    "credentialSubject": {
      "id": "did:web:compliance.gaia-x.eu",
      "hash": "720b3bddca08e46fb331cb482f3ad43d7c1fe05e0096d113297bc9bd7236e16b"
    },
    "proof": {
      "type": "JsonWebKey2020",
      "created": "2022-08-12T10:24:09.502Z",
      "proofPurpose": "assertionMethod",
      "jws": "eyJhbGciOiJQUzI1NiIsImI2NCI6ZmFsc2UsImNyaXQiOlsiYjY0Il19..E4vLVy36vww3SVT17pFjy1KYX0Iwu0RuE1pTZ-5xlBQ2XE0mB_5XDlDvxsKmPO80Q8tj1BMfuctKxkGaOSyBxAZdQR05PTWJ91nd7_7DCFi2sqwFZk-ud4ZxTPwBzPy9avCmriOtDl2xy9aU9MrCyJQw-XlDYOSj_vqXy6IiuWvFYNMxQtRV6vxOU4wBqJdRNfZYgQwiDkSPSrNSD_Cr84rhj3EP21OdUyEeWJnuIR0sE6sGNXr4Dyo5Sgq9waFzP9OWRCKZII2nQk0yFrUmBO1NRbIvespNF3wYdBdYNl78v-HOgq_Zu3uVjOYPS9juMmfZd2DnUffgYMckWRNjTg",
      "verificationMethod": "did:web:compliance.gaia-x.eu"
    }
  }
}