{
  "selfDescriptionCredential": {
    "@context": [
      "http://www.w3.org/ns/shacl#",
      "http://www.w3.org/2001/XMLSchema#",
      "https://registry.gaia-x.eu/api/v2206/shape/files?file=participant&type=ttl#"
    ],
    "type": [
      "VerifiableCredential",
      "LegalPerson"
    ],
    "id": "https://arlabdevelopments.com/.well-known/ArsysParticipant-v2206.json",
    "credentialSubject": {
      "id": "did:web:arlabdevelopments.com",
      "gx-participant:name": "Arsys Internet",
      "gx-participant:legalName": "Arsys Internet S.L.U",
      "gx-participant:registrationNumber": {
        "gx-participant:registrationNumberType": "EUID",
        "gx-participant:registrationNumberNumber": "ES26010.000059252"
      },
      "gx-participant:headquarterAddress": {
        "gx-participant:addressCountryCode": "ES",
        "gx-participant:addressCode": "ES-RI",
        "gx-participant:street-address": "Madre de Dios 21",
        "gx-participant:postal-code": "26004",
        "gx-participant:locality": "Logroño"
      },
      "gx-participant:legalAddress": {
        "gx-participant:addressCountryCode": "ES",
        "gx-participant:addressCode": "ES-RI",
        "gx-participant:street-address": "Madre de Dios 21",
        "gx-participant:postal-code": "26004",
        "gx-participant:locality": "Logroño"
      },
      "gx-participant:parentOrganisation": {
        "gx-participant:name": "United Internet",
        "gx-participant:legalName": "United Internet AG",
        "gx-participant:registrationNumber": {
          "gx-participant:registrationNumberType": "EUID",
          "gx-participant:registrationNumberNumber": "DET2214V.HRB5762"
        },
        "gx-participant:legalAddress": {
          "gx-participant:addressCountryCode": "DE",
          "gx-participant:street-address": "Elgendorfer Str. 57",
          "gx-participant:postal-code": "56410",
          "gx-participant:locality": "Montabaur",
          "gx-participant:addressCode": "DE-RP"
        },
        "gx-participant:headquarterAddress": {
          "gx-participant:addressCountryCode": "DE",
          "gx-participant:street-address": "Elgendorfer Str. 57",
          "gx-participant:postal-code": "56410",
          "gx-participant:locality": "Montabaur",
          "gx-participant:addressCode": "DE-RP"
        }
      },
      "gx-participant:termsAndConditions": "70c1d713215f95191a11d38fe2341faed27d19e083917bc8732ca4fea4976700"
    },
    "proof": {
      "type": "JsonWebKey2020",
      "created": "2022-08-12T10:14:57.973Z",
      "proofPurpose": "assertionMethod",
      "verificationMethod": "did:web:arlabdevelopments.com",
      "jws": "eyJhbGciOiJQUzI1NiIsImI2NCI6ZmFsc2UsImNyaXQiOlsiYjY0Il19..IYh7Co2_Om-oUW0PBjA05JmDsa4pXQ45Sr6cK9IRkcTJgisJ3GN2WJpiruuWl-GJs4vFNiBpNE3uMCJVJqb-_WVCxJbuReGMXjHYn7Dc46VxNlgeXjpgERStFdSx5rrq71lzB32su80PVT8FfIMh_ma7-mpf_llwWGNV9UPSuNASz6bIecAKoRJcblZHFAPBi6WzrFEFTNCXipGoXzDoCFe6UpNXl-ANYJlCEB8X23PJVcQXNxoz3y7QCfrUfKHAduX7XtAQ7Acyv1v8n-x5RzrQLRC48GdJGHyJn4dNMZFphBoIdMVupOhsm_DlySgwQiHup4GfOKyHHuY8MIaQgA"
    }
  },
  "complianceCredential": {
    "@context": [
      "https://www.w3.org/2018/credentials/v1"
    ],
    "type": [
      "VerifiableCredential",
      "ParticipantCredential"
    ],
    "id": "https://catalogue.gaia-x.eu/credentials/ParticipantCredential/1660299301397",
    "issuer": "did:web:compliance.lab.gaia-x.eu",
    "issuanceDate": "2022-08-12T10:15:01.397Z",
    "credentialSubject": {
      "id": "did:web:arlabdevelopments.com",
      "hash": "c2ec5d4fc97d21451ea8abca931a3b3dc72ab646ebf9cd89756d1fbb720d3360"
    },
    "proof": {
      "type": "JsonWebKey2020",
      "created": "2022-08-12T10:15:01.397Z",
      "proofPurpose": "assertionMethod",
      "jws": "eyJhbGciOiJQUzI1NiIsImI2NCI6ZmFsc2UsImNyaXQiOlsiYjY0Il19..mfr_BWjWt62bmidV5duGmqxbg6cks15VORN5ogYDSkUTh69hdOpGscT9lMOeCjfPJuNETiFp-t3ex4f1PY0uKFO7qLVyAMRxY9rH7_qbtXCcmEa8b6JyiUV0lkDC1V2MgUIIWezZawfMLwnEoO0whup93v4uO1eWIcJLGHU3VdCyVSxOwKEQJd6tGWfotxgz0h_sIMHKd3XUmXsSm7RHFr8Xljnh2HXhc_Nv3MtMzWahScgietMG-6-54Hyx23PQ9g7fmZsv9ODysUHYiyd8hCdwvIXSmuZD2ISFwCZe4ZgZF66q3EHLR-77kypXkYiViIlxG9CtW6bVOnUieWTp8g",
      "verificationMethod": "did:web:compliance.lab.gaia-x.eu"
    }
  }
}