{
  "selfDescriptionCredential": {
    "@context": [
      "http://www.w3.org/ns/shacl#",
      "http://www.w3.org/2001/XMLSchema#",
      "http://w3id.org/gaia-x/resource#",
      "http://w3id.org/gaia-x/participant#",
      "http://w3id.org/gaia-x/service-offering#"
    ],
    "@id": "https://arlabdevelopments.com/.well-known/infrastructure/baremetalIx6S.json",
    "@type": [
      "VerifiableCredential",
      "ServiceOfferingExperimental",
      "PhysicalResource"
    ],
    "credentialSubject": {
      "id": "https://arlabdevelopments.com/.well-known/infrastructure/baremetalIx6S.json",
      "gx-service-offering:providedBy": {
        "@type": "xsd:string",
        "@value": "https://arlabdevelopments.com/.well-known/ArsysLab.json"
      },
      "gx-service-offering:name": {
        "@value": "Dedicated Server ix6-S",
        "@type": "xsd:string"
      },
      "gx-service-offering:description": {
        "@value": "Arsys Baremetal Server - ix6-S model",
        "@type": "xsd:string"
      },
      "gx-service-offering:ramsize": {
        "@type": "gx-service-offering:measure",
        "gx-service-offering:Value": {
          "@value": "32",
          "@type": "xsd:float"
        },
        "gx-service-offering:Unit": {
          "@value": "GB",
          "@type": "xsd:string"
        }
      },
      "gx-service-offering:disk": {
        "@type": "gx-service-offering:measure",
        "gx-service-offering:Value": {
          "@value": "2000",
          "@type": "xsd:int"
        },
        "gx-service-offering:Unit": {
          "@value": "GB",
          "@type": "xsd:string"
        },
        "gx-service-offering:description": {
          "@value": "2 x HDD",
          "@type": "xsd:string"
        }
      },
      "gx-service-offering:cpu": {
        "@type": "gx-service-offering:measure",
        "gx-service-offering:Value": {
          "@value": "1",
          "@type": "xsd:int"
        },
        "gx-service-offering:description": {
          "@value": "Intel Xeon E-2356G 6 cores x 3,2 GHz",
          "@type": "xsd:string"
        }
      },
      "gx-service-offering:termsAndConditions": [
        {
          "@type": "gx-service-offering:TermsAndConditions",
          "gx-service-offering:url": "https://www.arsys.es/terms/promo-30-dias-gratis-cloudbuildernext_sd_virt_chg",
          "gx-service-offering:hash": "8f760b6099ca44c382aaf3f264493b1208187334459951fe39b028eec9f5c39b"
        }
      ],
      "gx-service-offering:webAddress": {
        "@value": "https://www.arsys.es/servidores/dedicados",
        "@type": "xsd:anyURI"
      },
      "gx-service-offering:hostedOn": [
        {
          "@type": "xsd:string",
          "@value": "https://arlabdevelopments.com/.well-known/datacenter/serviceDatacenterEs.json"
        },
        {
          "@type": "xsd:string",
          "@value": "https://arlabdevelopments.com/.well-known/datacenter/serviceDatacenterDe.json"
        }
      ],
      "gx-service-offering:gdpr": [
        {
          "@type": "xsd:anyURI",
          "gx-service-offering:imprint": "https://www.arsys.es/legal"
        },
        {
          "@type": "xsd:anyURI",
          "gx-service-offering:privacyPolicy": "https://www.arsys.net/terms/personal-data-protection"
        }
      ]
    },
    "proof": {
      "type": "JsonWebKey2020",
      "created": "2022-07-28T09:36:57.701Z",
      "proofPurpose": "assertionMethod",
      "verificationMethod": "did:web:arlabdevelopments.com",
      "jws": "eyJhbGciOiJQUzI1NiIsImI2NCI6ZmFsc2UsImNyaXQiOlsiYjY0Il19..ptMZgV6nNvUzoM1GhwlDODFVmfaLLVfywkAUla1T0UdZHQsjo1OXtUd9X36dJpS_OzIltTGP5ffW4_ia6tWSivz5r5xMHCOYwDFWGuZnUmHd-fnwvg8beLvTo7Lu4tsst1zsvHomxbQkX7i_qer8Yw0-P1fOuqqkwSWLKNSxs9quiix5I_hs3xmvoeZBjk_7n4NJeankmP0_pibp3zYJpgoMlDwvaJadHxJxM5840q6orV0arEur51pGLwI5gGr9Q2GeEFHUDy_BQwom24G0PWbUwVfo38AhVSX66rGV-459C2WjAYScou84lg5vAYHdAt89cdgXjpdBxmCqwaBvqQ"
    }
  },
  "complianceCredential": {
    "@context": [
      "https://www.w3.org/2018/credentials/v1"
    ],
    "@type": [
      "VerifiableCredential",
      "ServiceOfferingCredentialExperimental"
    ],
    "id": "https://catalogue.gaia-x.eu/credentials/ServiceOfferingCredentialExperimental/1659001023447",
    "issuer": "did:web:compliance.gaia-x.eu",
    "issuanceDate": "2022-07-28T09:37:03.447Z",
    "credentialSubject": {
      "id": "https://arlabdevelopments.com/.well-known/infrastructure/baremetalIx6S.json",
      "hash": "d2c8c0ec689c0bb3bf72975b64fb427e447b6edfbdfe0a3342de3cde8a7bb08e"
    },
    "proof": {
      "type": "JsonWebKey2020",
      "created": "2022-07-28T09:37:03.447Z",
      "proofPurpose": "assertionMethod",
      "jws": "eyJhbGciOiJQUzI1NiIsImI2NCI6ZmFsc2UsImNyaXQiOlsiYjY0Il19..mijWKHyg7E9ZQv7fjKxLfVkFLoagBvo3Vf659koTnbrbCWmI0ndWrMk9MRjjbg1xgsCYvfRvMR2I2q4cU-qE8UfvOAd_TaD6UuOFH_2Xvhlw6u8Nu8DRKWg52oiNpwekLoKAzYiRnfcaZGoVM275JQ1MlifYIFDnW6DARrCMNG7e__IWMzV1uZ6oTpEwAHrCaUpWF-SeDVUDmaVWdXsqojeKZzks4zgYXWJO0RIWwZjAFQe3gEog6mMrD6y0RjVTSrv5ecCZhxvcscKUIu9YgGV9lD08Jtk8qfIlSXkPwzJhMsBquFW3bEzyN-RpV2gywKmzeMFlRR54pU9ytn4fgg",
      "verificationMethod": "did:web:compliance.gaia-x.eu"
    }
  }
}