{
  "selfDescriptionCredential": {
    "@context": [
      "http://www.w3.org/ns/shacl#",
      "http://www.w3.org/2001/XMLSchema#",
      "http://w3id.org/gaia-x/resource#",
      "http://w3id.org/gaia-x/participant#",
      "http://w3id.org/gaia-x/service-offering#"
    ],
    "@id": "https://arlabdevelopments.com/.well-known/infrastructure/VpsXL.json",
    "@type": [
      "VerifiableCredential",
      "ServiceOfferingExperimental"
    ],
    "credentialSubject": {
      "id": "https://arlabdevelopments.com/.well-known/infrastructure/VpsXL.json",
      "gx-service-offering:providedBy": {
        "@type": "xsd:string",
        "@value": "https://arlabdevelopments.com/.well-known/ArsysLab.json"
      },
      "gx-service-offering:name": {
        "@value": "VPS XL",
        "@type": "xsd:string"
      },
      "gx-service-offering:description": {
        "@value": "Arsys Private Virtual Server - XL Model",
        "@type": "xsd:string"
      },
      "gx-service-offering:ramsize": {
        "@type": "gx-service-offering:measure",
        "gx-service-offering:Value": {
          "@value": "12",
          "@type": "xsd:int"
        },
        "gx-service-offering:Unit": {
          "@value": "GB",
          "@type": "xsd:string"
        }
      },
      "gx-service-offering:disk": {
        "@type": "gx-service-offering:measure",
        "gx-service-offering:Value": {
          "@value": "200",
          "@type": "xsd:int"
        },
        "gx-service-offering:Unit": {
          "@value": "GB",
          "@type": "xsd:string"
        },
        "gx-service-offering:description": {
          "@value": "SSD (Solid State Drives)",
          "@type": "xsd:string"
        }
      },
      "gx-service-offering:cpu": {
        "@type": "gx-service-offering:measure",
        "gx-service-offering:Value": {
          "@value": "6",
          "@type": "xsd:int"
        },
        "gx-service-offering:description": {
          "@value": "vCPU Intel Xeon",
          "@type": "xsd:string"
        }
      },
      "gx-service-offering:bandwidth": {
        "@type": "gx-service-offering:measure",
        "gx-service-offering:Value": {
          "@value": "400",
          "@type": "xsd:int"
        },
        "gx-service-offering:Unit": {
          "@value": "Mbps",
          "@type": "xsd:string"
        }
      },
      "gx-service-offering:webAddress": {
        "@value": "https://www.arsys.es/servidores/vps",
        "@type": "xsd:anyURI"
      },
      "gx-service-offering:hostedOn": [
        {
          "@type": "xsd:string",
          "@value": "https://arlabdevelopments.com/.well-known/datacenter/serviceDatacenterEs.json"
        }
      ],
      "gx-service-offering:gdpr": [
        {
          "@type": "xsd:anyURI",
          "gx-service-offering:imprint": "https://www.arsys.es/legal"
        },
        {
          "@type": "xsd:anyURI",
          "gx-service-offering:privacyPolicy": "https://www.arsys.net/terms/personal-data-protection"
        }
      ]
    },
    "proof": {
      "type": "JsonWebKey2020",
      "created": "2022-07-25T11:32:30.110Z",
      "proofPurpose": "assertionMethod",
      "verificationMethod": "did:web:arlabdevelopments.com",
      "jws": "eyJhbGciOiJQUzI1NiIsImI2NCI6ZmFsc2UsImNyaXQiOlsiYjY0Il19..Ha0pQ6OhtYN9ZsGhE81gWsynypiagCRWuBFY0dwUrUFZ1CiiJ1hpbtn4cM0-SK7_fDPPi4_bdlEMiIAVEUVFeBuHL5zyiQiN44O2ER6nZT0bl1dB1XrLD08E6uVWIp5DU2r5RoHjiR-ZanXcLLcTYPuKXsh-j9kfmtToIVCxMM8NPvZrIlmqOV3oAA9cRTYalYYvTT3Wf9ualrLTNT4lDkmCx2ZOX0VBGeqVfL3uAPdfWLttngYstANgPhR4si-GWvy2eHLWGnunkjUmujJhr1vmthJpZOEWbwl7TJisMoffBETNURpr54EBYNXL_8O_HHPj7yIIAIg6tv0AIY0O9g"
    }
  },
  "complianceCredential": {
    "@context": [
      "https://www.w3.org/2018/credentials/v1"
    ],
    "@type": [
      "VerifiableCredential",
      "ServiceOfferingCredentialExperimental"
    ],
    "id": "https://catalogue.gaia-x.eu/credentials/ServiceOfferingCredentialExperimental/1658748756031",
    "issuer": "did:web:compliance.gaia-x.eu",
    "issuanceDate": "2022-07-25T11:32:36.031Z",
    "credentialSubject": {
      "id": "https://arlabdevelopments.com/.well-known/infrastructure/VpsXL.json",
      "hash": "9b52a998597a7487f16e16677d0e5b4aea9e34c3a29abea9988973864dc86081"
    },
    "proof": {
      "type": "JsonWebKey2020",
      "created": "2022-07-25T11:32:36.031Z",
      "proofPurpose": "assertionMethod",
      "jws": "eyJhbGciOiJQUzI1NiIsImI2NCI6ZmFsc2UsImNyaXQiOlsiYjY0Il19..tcoZ1AwiatvFwyJDkqgyT-W5N9lw2aSBXAJNN96cy2nJ81KNkU-twoFXBqeeU59X8n66njIN_QqrmPsIF0_8Nt9q4hSgqaRsg2Hj3JOitlbEFy7ApAW1KTvNQQaFnfKfmd2_5mkgyGy5iNugnv7Stcnyt9ab9FG1w-cEyHaUhzsiLKOfDr0xx_2P_1tJyhgsl-h7g5UtWD6b9ntGLqI5CFRQqMFOibzzcYkZ_98XtV1LSd-1dUrhfljI_Xa94-lQr7Ueya4AKg_DP8d8YjsnF3C12NOh4HSIRYTa_6zlrKCvLlbfx_WdP0n5sjU6ZIyKY7g5SClfO1L_swzS-mq-Kg",
      "verificationMethod": "did:web:compliance.gaia-x.eu"
    }
  }
}