{
    "selfDescriptionCredential": {
        "@context": [
            "https://www.w3.org/2018/credentials/v1",
            "https://registry.lab.gaia-x.eu/v2206/api/shape"
        ],
        "type": [
            "VerifiableCredential",
            "ServiceOfferingExperimental"
        ],
        "id": "https://delta-dao.com/.well-known/serviceNetlify.json",
        "credentialSubject": {
            "id": "https://delta-dao.com/.well-known/serviceNetlify.json",
            "gx-service-offering:providedBy": "https://delta-dao.com/.well-known/participantNetlify.json",
            "gx-service-offering:name": "deltaDAO Netlify App",
            "gx-service-offering:description": "Netlify CDN: A global CDN to serve web apps, built directly from Git",
            "gx-service-offering:webAddress": "https://deltadao.netlify.app",
            "gx-service-offering:serviceModel": "subscription",
            "gx-service-offering:termsAndConditions": [
                {
                    "gx-service-offering:url": "https://www.netlify.com/legal/terms-of-use",
                    "gx-service-offering:hash": "ec23647e5cf07b87cb70114e3501a78420e59b5a229f8d80b0457fc615b8f363"
                }
            ],
            "gx-service-offering:gdpr": [
                {
                    "gx-service-offering:imprint": "https://www.netlify.com/about/"
                },
                {
                    "gx-service-offering:privacyPolicy": "https://www.netlify.com/privacy/"
                }
            ],
            "gx-service-offering:dataProtectionRegime": [
                "GDPR2016"
            ],
            "gx-service-offering:dataExport": {
                "gx-service-offering:requestType": "email",
                "gx-service-offering:accessType": "digital",
                "gx-service-offering:formatType": "mime/png"
            }
        },
        "issuer": "did:web:delta-dao.com",
        "issuanceDate": "2022-09-25T23:23:23.235Z",
        "proof": {
            "type": "JsonWebSignature2020",
            "created": "2022-09-25T18:59:06.304Z",
            "proofPurpose": "assertionMethod",
            "verificationMethod": "did:web:delta-dao.com",
            "jws": "eyJhbGciOiJQUzI1NiIsImI2NCI6ZmFsc2UsImNyaXQiOlsiYjY0Il19..OSWIvJ8nJVvh5vyuHuujWGlLHWnd1AePmT4G43zD-N8hhU2ZSvKilEAM2dVIZrBUbVyFeans8Tb-C4-mDI7iZnwYogLtg8wik9GAsv40EGRRH21vZdInzuAn7SYOYhbDGJCKi5gDIcjLqGUNE-9jWXeIXTe08b0Hs1MgLmWS2ZVEFNjbkJ3QQvebCWO3lgVALcFdhMhMDsDB0ma62LzKIdF6-PWr8TT9zD7EEcDg6At36VaPhf72lprFjjiNe6yqJngPY6uuCFLZnSm3WbqUGv-cKZ4OVfM2AJgwu2p0S--OmpneQe9xlDcPl7Wu6bqe6lLfVS3ry1HUa7NSRXMf1Q"
        }
    },
    "complianceCredential": {
        "@context": [
            "https://www.w3.org/2018/credentials/v1"
        ],
        "type": [
            "VerifiableCredential",
            "ServiceOfferingCredentialExperimental"
        ],
        "id": "https://catalogue.gaia-x.eu/credentials/ServiceOfferingCredentialExperimental/1664132350983",
        "issuer": "did:web:compliance.lab.gaia-x.eu",
        "issuanceDate": "2022-09-25T18:59:10.984Z",
        "credentialSubject": {
            "id": "https://delta-dao.com/.well-known/serviceNetlify.json",
            "hash": "2909d80a8382fc2cccef922bbf73323f12441ad4e94f1d30db5f390b6513fed9"
        },
        "proof": {
            "type": "JsonWebSignature2020",
            "created": "2022-09-25T18:59:10.984Z",
            "proofPurpose": "assertionMethod",
            "jws": "eyJhbGciOiJQUzI1NiIsImI2NCI6ZmFsc2UsImNyaXQiOlsiYjY0Il19..C154pxpfK6ep2PaK6orqjv5Ah6NI3jA4PNRepk2TH08czHb9RcqjpLKC-qFLCcPpfJ6leI6WmyxwpSzqU5tABR7AWokm7khuCEJjWj4iBfT9qDm5kXHmtrKhjRE5WJoDRpCkJN4bYWBn8SwsSmlJTthVzotfOTbM51HGbKWNyztebldvWHUfbHqxr44oKeS1ougO0mjj8vlw3tTkGbsG4Kb73v7XcGgKBYIxCrZPnNE6_QoaRos_TyuNYeoBkErmJIxzSnMcYDCyrqsWVyuN4UQ0t7e3EsM4DkqxyE47cm4YtA5v3A5Cr_5eH16wVmxpJWM9u8_BqBcqZoqowj89Kw",
            "verificationMethod": "did:web:compliance.lab.gaia-x.eu"
        }
    }
}