{
    "selfDescriptionCredential": {
        "@context": [
            "https://www.w3.org/2018/credentials/v1",
            "https://registry.lab.gaia-x.eu/v2206/api/shape"
        ],
        "type": [
            "VerifiableCredential",
            "ServiceOfferingExperimental"
        ],
        "id": "https://delta-dao.com/.well-known/serviceMobilityMove1.json",
        "credentialSubject": {
            "id": "did:op:4bB5353309913f8003a9451B8E0C15C81dCB9064",
            "gx-service-offering:providedBy": "https://delta-dao.com/.well-known/participantRijkswaterstaat.json",
            "gx-service-offering:name": "MOVE-1 Algorithm for the Future Mobility Marketplace",
            "gx-service-offering:description": "This data service offering offers an example algorithm for object detection and annotation.",
            "gx-service-offering:serviceModel": "subscription",
            "gx-service-offering:servicePrice": [
                {
                    "gx-service-offering:servicePriceCurrency": "Ocean",
                    "gx-service-offering:servicePriceValue": "10"
                }
            ],
            "gx-service-offering:subscriptionDuration": "86400",
            "gx-service-offering:Policies": "computeToDataOnly",
            "gx-service-offering:webAddress": "https://marketplace.future-mobility-alliance.org/asset/did:op:4bB5353309913f8003a9451B8E0C15C81dCB9064",
            "gx-service-offering:termsAndConditions": [
                {
                    "gx-service-offering:url": "https://creativecommons.org/licenses/by/4.0/",
                    "gx-service-offering:hash": "2edd334433cb3ff9c2904b194653d714cf42398e6af750fb44c65679a9fce6cc"
                }
            ],
            "gx-service-offering:gdpr": [
                {
                    "gx-service-offering:imprint": "https://www.delta-dao.com/imprint/"
                },
                {
                    "gx-service-offering:privacyPolicy": "https://www.delta-dao.com/privacy/"
                }
            ],
            "gx-service-offering:dependsOn": [
                "https://www.delta-dao.com/.well-known/operatorEngine.json",
                "https://www.delta-dao.com/.well-known/operatorService.json",
                "https://www.delta-dao.com/.well-known/accesscontroller.json",
                "https://delta-dao.com/.well-known/serviceGaiaxDLTNetwork.json",
                "https://delta-dao.com/.well-known/s3bucket.json",
                "https://delta-dao.com/.well-known/serviceK8sClusterDeltaDAO.json"
            ],
            "gx-service-offering:dataProtectionRegime": [
                "GDPR2016"
            ],
            "gx-service-offering:dataExport": {
                "gx-service-offering:requestType": "email",
                "gx-service-offering:accessType": "digital",
                "gx-service-offering:formatType": "mime/png"
            }
        },
        "issuer": "did:web:delta-dao.com",
        "issuanceDate": "2022-09-25T23:23:23.235Z",
        "proof": {
            "type": "JsonWebSignature2020",
            "created": "2022-09-25T21:31:41.068Z",
            "proofPurpose": "assertionMethod",
            "verificationMethod": "did:web:delta-dao.com",
            "jws": "eyJhbGciOiJQUzI1NiIsImI2NCI6ZmFsc2UsImNyaXQiOlsiYjY0Il19..sCm8jGty2Kjvwvv2V-PsYAJc6H1M7LtR8L29scPwlSAEfmN7z34TL1Kzstorxm6zAN3Y8vqslLxXA25_5m53XXuHx6z5TCerUsRxsvJI8ZK_rwSk8jt5UU8Fp6d24-dU7dvVivTBCfnPpO8XXTknHSOHBM9y_rvt9acC5w1Sk-XZ54MpwWsy-1Q54uLkIoAStpiEcfQ-AKdQhNuTpBDri_ysnKfr6I2xDRKyVtTjooL4WcEuLtA6f0qwuIxXAxJqzr0OfBqlnmJTV4Q1P_cVSxfisFkPlqLdWY96g-TbHX0N_9g5WQuDIRekMiMuocGwYEcNPpp4hr2sVQnWlEkkWg"
        }
    },
    "complianceCredential": {
        "@context": [
            "https://www.w3.org/2018/credentials/v1"
        ],
        "type": [
            "VerifiableCredential",
            "ServiceOfferingCredentialExperimental"
        ],
        "id": "https://catalogue.gaia-x.eu/credentials/ServiceOfferingCredentialExperimental/1664141506208",
        "issuer": "did:web:compliance.lab.gaia-x.eu",
        "issuanceDate": "2022-09-25T21:31:46.208Z",
        "credentialSubject": {
            "id": "did:op:4bB5353309913f8003a9451B8E0C15C81dCB9064",
            "hash": "ba1b6e18b0adb450f35fe83a85c9ae3b21f8c5a920e47c26b532fd1c4397fe43"
        },
        "proof": {
            "type": "JsonWebSignature2020",
            "created": "2022-09-25T21:31:46.208Z",
            "proofPurpose": "assertionMethod",
            "jws": "eyJhbGciOiJQUzI1NiIsImI2NCI6ZmFsc2UsImNyaXQiOlsiYjY0Il19..mi2pYI4kiLUVtdKzX1mbipE8WhNO9u1hIpXzZrpvMtTlzNYD-ipWiOvH9V3raYnc1xuLwYh0ixKk6Ms0EjkoFxpmRk7uAZk-0EKuB4v3i84-Yp8JZSUckkJgLgQC1F5Yd-GbsbJIpgDqaGciUU-iwfqfDPtFAJCxiGzgO1qxxgI0RtzB6FHh2NmZ5WOVfzd4MZQP0IP462o_y67cwjPIRmLkEnSR-EEoi6YZMjftEYdGuV004dnCpEl7HgLsoMDpGYAeEEtDB0TmukNn8VeI9TcUlKmb9zNpYZC-FPhCaqcvXnn1Xy2TtSLi5fty5JAstii8SSAJLHELcwkVkSqyUQ",
            "verificationMethod": "did:web:compliance.lab.gaia-x.eu"
        }
    }
}